// Jest Snapshot v1, https://goo.gl/fbAQLP

exports[`testing block Dignity renders correctly 1`] = `
<section
  className="dignity-block"
>
  <div
    className="container"
  >
    <div
      className="dignity-info"
    >
      <h2
        className="dignity-title"
      >
        Dignity and pluses product
      </h2>
      <div
        className="dignity-plus"
      >
        <div
          className="dignity-item-block"
        >
          <div
            className="dignity-icon"
          >
            <i
              className="fas fa-plus dignity-icon-plus"
            />
          </div>
          <div
            className="dignity-item-description"
          >
            Delectus dolorem vero quae beatae quasi dolor deserunt iste amet atque, impedit iure placeat, ullam. Reprehenderit aliquam, nemo cum velit ratione perferendis quas, maxime, quaerat porro totam, dolore minus inventore.
          </div>
        </div>
        <div
          className="dignity-item-block"
        >
          <div
            className="dignity-icon"
          >
            <i
              className="fas fa-plus dignity-icon-plus"
            />
          </div>
          <div
            className="dignity-item-description"
          >
            Delectus dolorem vero quae beatae quasi dolor deserunt iste amet atque, impedit iure placeat, ullam. Reprehenderit aliquam, nemo cum velit ratione perferendis quas, maxime, quaerat porro totam, dolore minus inventore.
          </div>
        </div>
        <div
          className="dignity-item-block"
        >
          <div
            className="dignity-icon"
          >
            <i
              className="fas fa-plus dignity-icon-plus"
            />
          </div>
          <div
            className="dignity-item-description"
          >
            Delectus dolorem vero quae beatae quasi dolor deserunt iste amet atque, impedit iure placeat, ullam. Reprehenderit aliquam, nemo cum velit ratione perferendis quas, maxime, quaerat porro totam, dolore minus inventore.
          </div>
        </div>
        <div
          className="dignity-item-block"
        >
          <div
            className="dignity-icon"
          >
            <i
              className="fas fa-plus dignity-icon-plus"
            />
          </div>
          <div
            className="dignity-item-description"
          >
            Delectus dolorem vero quae beatae quasi dolor deserunt iste amet atque, impedit iure placeat, ullam. Reprehenderit aliquam, nemo cum velit ratione perferendis quas, maxime, quaerat porro totam, dolore minus inventore.
          </div>
        </div>
        <div
          className="dignity-item-block"
        >
          <div
            className="dignity-icon"
          >
            <i
              className="fas fa-plus dignity-icon-plus"
            />
          </div>
          <div
            className="dignity-item-description"
          >
            Delectus dolorem vero quae beatae quasi dolor deserunt iste amet atque, impedit iure placeat, ullam. Reprehenderit aliquam, nemo cum velit ratione perferendis quas, maxime, quaerat porro totam, dolore minus inventore.
          </div>
        </div>
        <div
          className="dignity-item-block"
        >
          <div
            className="dignity-icon"
          >
            <i
              className="fas fa-plus dignity-icon-plus"
            />
          </div>
          <div
            className="dignity-item-description"
          >
            Delectus dolorem vero quae beatae quasi dolor deserunt iste amet atque, impedit iure placeat, ullam. Reprehenderit aliquam, nemo cum velit ratione perferendis quas, maxime, quaerat porro totam, dolore minus inventore.
          </div>
        </div>
      </div>
    </div>
  </div>
</section>
`;
