// Jest Snapshot v1, https://goo.gl/fbAQLP

exports[`testing block Reviews-item renders correctly 1`] = `
<div
  className="review-item-block"
>
  <div
    className="review-image"
  />
  <p
    className="left"
  />
  <div
    className="review-description"
  >
    <i
      className="review-text"
    />
    <div
      className="review-author"
    />
  </div>
</div>
`;
